A Report Generated by knitr
…
# Agrupando os dados e calculando média  Energy consumption [kWh/100 km] 

# group_by()
df_dados %>%
  group_by(Modelo) %>%
  summarise(avg_MediaConsumoEnergia = mean(MediaConsumoEnergia),
            min_MediaConsumoEnergia = min(MediaConsumoEnergia),
            max_MediaConsumoEnergia = max(MediaConsumoEnergia),
            total = n())

## # A tibble: 42 × 5
##    Modelo       avg_MediaConsumoEner…¹ min_MediaConsumoEner…² max_MediaConsumoEner…³ total
##    <fct>                         <dbl>                  <dbl>                  <dbl> <int>
##  1 Citigo-e iV                    15.4                   15.4                   15.4     1
##  2 Cooper SE                      16.8                   16.8                   16.8     1
##  3 Corsa-e                        16.6                   16.6                   16.6     1
##  4 DS3 Crossba…                   15.6                   15.6                   15.6     1
##  5 e                              17.2                   17.2                   17.2     1
##  6 e-208                          16.4                   16.4                   16.4     1
##  7 e-Niro 39.2…                   15.3                   15.3                   15.3     1
##  8 e-Niro 64kWh                   15.9                   15.9                   15.9     1
##  9 e-Soul 39.2…                   15.6                   15.6                   15.6     1
## 10 e-Soul 64kWh                   15.7                   15.7                   15.7     1
## # ℹ 32 more rows
## # ℹ abbreviated names: ¹​avg_MediaConsumoEnergia, ²​min_MediaConsumoEnergia,
## #   ³​max_MediaConsumoEnergia
…
# Carro mais economico
Carro_min <- df_dados %>%
  group_by(Modelo) %>%
  summarise(min_value = min(MediaConsumoEnergia))

# Carro mais consumo 
Carro_max <- df_dados %>%
  group_by(Modelo) %>%
  summarise(max_value = max(MediaConsumoEnergia))
Carro_max

## # A tibble: 42 × 2
##    Modelo                max_value
##    <fct>                     <dbl>
##  1 Citigo-e iV                15.4
##  2 Cooper SE                  16.8
##  3 Corsa-e                    16.6
##  4 DS3 Crossback e-tense      15.6
##  5 e                          17.2
##  6 e-208                      16.4
##  7 e-Niro 39.2kWh             15.3
##  8 e-Niro 64kWh               15.9
##  9 e-Soul 39.2kWh             15.6
## 10 e-Soul 64kWh               15.7
## # ℹ 32 more rows
…
